{"help": "https://opendata-ajuntament.barcelona.cat/data/api/3/action/help_show?name=datastore_search", "success": true, "result": {"resource_id": "7b2652c1-d689-4804-8a16-55386022e9f8", "fields": [{"type": "int4", "id": "_id"}, {"type": "numeric", "id": "Any"}, {"type": "numeric", "id": "Mes"}, {"type": "numeric", "id": "Codi_Districte"}, {"type": "text", "id": "Nom_Districte"}, {"type": "numeric", "id": "Codi_Barri"}, {"type": "text", "id": "Nom_Barri"}, {"type": "text", "id": "Sexe"}, {"type": "text", "id": "Demanda_ocupacio"}, {"type": "numeric", "id": "Nombre"}], "records": [{"Codi_Districte": "1", "Sexe": "Dones", "Nom_Districte": "Ciutat Vella", "Demanda_ocupacio": "Atur Registrat", "Nom_Barri": "el Raval", "Mes": "1", "Codi_Barri": "1", "Nombre": "2139", "_id": 1, "Any": "2021"}, {"Codi_Districte": "1", "Sexe": "Dones", "Nom_Districte": "Ciutat Vella", "Demanda_ocupacio": "Atur Registrat", "Nom_Barri": "el Barri G\u00f2tic", "Mes": "1", "Codi_Barri": "2", "Nombre": "673", "_id": 2, "Any": "2021"}, {"Codi_Districte": "1", "Sexe": "Dones", "Nom_Districte": "Ciutat Vella", "Demanda_ocupacio": "Atur Registrat", "Nom_Barri": "la Barceloneta", "Mes": "1", "Codi_Barri": "3", "Nombre": "722", "_id": 3, "Any": "2021"}, {"Codi_Districte": "1", "Sexe": "Dones", "Nom_Districte": "Ciutat Vella", "Demanda_ocupacio": "Atur Registrat", "Nom_Barri": "Sant Pere, Santa Caterina i la Ribera", "Mes": "1", "Codi_Barri": "4", "Nombre": "995", "_id": 4, "Any": "2021"}, {"Codi_Districte": "2", "Sexe": "Dones", "Nom_Districte": "Eixample", "Demanda_ocupacio": "Atur Registrat", "Nom_Barri": "el Fort Pienc", "Mes": "1", "Codi_Barri": "5", "Nombre": "896", "_id": 5, "Any": "2021"}, {"Codi_Districte": "2", "Sexe": "Dones", "Nom_Districte": "Eixample", "Demanda_ocupacio": "Atur Registrat", "Nom_Barri": "la Sagrada Fam\u00edlia", "Mes": "1", "Codi_Barri": "6", "Nombre": "1417", "_id": 6, "Any": "2021"}, {"Codi_Districte": "2", "Sexe": "Dones", "Nom_Districte": "Eixample", "Demanda_ocupacio": "Atur Registrat", "Nom_Barri": "la Dreta de l'Eixample", "Mes": "1", "Codi_Barri": "7", "Nombre": "1003", "_id": 7, "Any": "2021"}, {"Codi_Districte": "2", "Sexe": "Dones", "Nom_Districte": "Eixample", "Demanda_ocupacio": "Atur Registrat", "Nom_Barri": "l'Antiga Esquerra de l'Eixample", "Mes": "1", "Codi_Barri": "8", "Nombre": "1032", "_id": 8, "Any": "2021"}, {"Codi_Districte": "2", "Sexe": "Dones", "Nom_Districte": "Eixample", "Demanda_ocupacio": "Atur Registrat", "Nom_Barri": "la Nova Esquerra de l'Eixample", "Mes": "1", "Codi_Barri": "9", "Nombre": "1530", "_id": 9, "Any": "2021"}, {"Codi_Districte": "2", "Sexe": "Dones", "Nom_Districte": "Eixample", "Demanda_ocupacio": "Atur Registrat", "Nom_Barri": "Sant Antoni", "Mes": "1", "Codi_Barri": "10", "Nombre": "1139", "_id": 10, "Any": "2021"}, {"Codi_Districte": "3", "Sexe": "Dones", "Nom_Districte": "Sants-Montju\u00efc", "Demanda_ocupacio": "Atur Registrat", "Nom_Barri": "el Poble Sec", "Mes": "1", "Codi_Barri": "11", "Nombre": "1504", "_id": 11, "Any": "2021"}, {"Codi_Districte": "3", "Sexe": "Dones", "Nom_Districte": "Sants-Montju\u00efc", "Demanda_ocupacio": "Atur Registrat", "Nom_Barri": "la Marina del Prat Vermell", "Mes": "1", "Codi_Barri": "12", "Nombre": "62", "_id": 12, "Any": "2021"}, {"Codi_Districte": "3", "Sexe": "Dones", "Nom_Districte": "Sants-Montju\u00efc", "Demanda_ocupacio": "Atur Registrat", "Nom_Barri": "la Marina de Port", "Mes": "1", "Codi_Barri": "13", "Nombre": "1257", "_id": 13, "Any": "2021"}, {"Codi_Districte": "3", "Sexe": "Dones", "Nom_Districte": "Sants-Montju\u00efc", "Demanda_ocupacio": "Atur Registrat", "Nom_Barri": "la Font de la Guatlla", "Mes": "1", "Codi_Barri": "14", "Nombre": "382", "_id": 14, "Any": "2021"}, {"Codi_Districte": "3", "Sexe": "Dones", "Nom_Districte": "Sants-Montju\u00efc", "Demanda_ocupacio": "Atur Registrat", "Nom_Barri": "Hostafrancs", "Mes": "1", "Codi_Barri": "15", "Nombre": "490", "_id": 15, "Any": "2021"}, {"Codi_Districte": "3", "Sexe": "Dones", "Nom_Districte": "Sants-Montju\u00efc", "Demanda_ocupacio": "Atur Registrat", "Nom_Barri": "la Bordeta", "Mes": "1", "Codi_Barri": "16", "Nombre": "575", "_id": 16, "Any": "2021"}, {"Codi_Districte": "3", "Sexe": "Dones", "Nom_Districte": "Sants-Montju\u00efc", "Demanda_ocupacio": "Atur Registrat", "Nom_Barri": "Sants - Badal", "Mes": "1", "Codi_Barri": "17", "Nombre": "633", "_id": 17, "Any": "2021"}, {"Codi_Districte": "3", "Sexe": "Dones", "Nom_Districte": "Sants-Montju\u00efc", "Demanda_ocupacio": "Atur Registrat", "Nom_Barri": "Sants", "Mes": "1", "Codi_Barri": "18", "Nombre": "1185", "_id": 18, "Any": "2021"}, {"Codi_Districte": "4", "Sexe": "Dones", "Nom_Districte": "Les Corts", "Demanda_ocupacio": "Atur Registrat", "Nom_Barri": "les Corts", "Mes": "1", "Codi_Barri": "19", "Nombre": "1198", "_id": 19, "Any": "2021"}, {"Codi_Districte": "4", "Sexe": "Dones", "Nom_Districte": "Les Corts", "Demanda_ocupacio": "Atur Registrat", "Nom_Barri": "la Maternitat i Sant Ramon", "Mes": "1", "Codi_Barri": "20", "Nombre": "626", "_id": 20, "Any": "2021"}, {"Codi_Districte": "4", "Sexe": "Dones", "Nom_Districte": "Les Corts", "Demanda_ocupacio": "Atur Registrat", "Nom_Barri": "Pedralbes", "Mes": "1", "Codi_Barri": "21", "Nombre": "154", "_id": 21, "Any": "2021"}, {"Codi_Districte": "5", "Sexe": "Dones", "Nom_Districte": "Sarri\u00e0-Sant Gervasi", "Demanda_ocupacio": "Atur Registrat", "Nom_Barri": "Vallvidrera, el Tibidabo i les Planes", "Mes": "1", "Codi_Barri": "22", "Nombre": "66", "_id": 22, "Any": "2021"}, {"Codi_Districte": "5", "Sexe": "Dones", "Nom_Districte": "Sarri\u00e0-Sant Gervasi", "Demanda_ocupacio": "Atur Registrat", "Nom_Barri": "Sarri\u00e0", "Mes": "1", "Codi_Barri": "23", "Nombre": "336", "_id": 23, "Any": "2021"}, {"Codi_Districte": "5", "Sexe": "Dones", "Nom_Districte": "Sarri\u00e0-Sant Gervasi", "Demanda_ocupacio": "Atur Registrat", "Nom_Barri": "les Tres Torres", "Mes": "1", "Codi_Barri": "24", "Nombre": "253", "_id": 24, "Any": "2021"}, {"Codi_Districte": "5", "Sexe": "Dones", "Nom_Districte": "Sarri\u00e0-Sant Gervasi", "Demanda_ocupacio": "Atur Registrat", "Nom_Barri": "Sant Gervasi - la Bonanova", "Mes": "1", "Codi_Barri": "25", "Nombre": "381", "_id": 25, "Any": "2021"}, {"Codi_Districte": "5", "Sexe": "Dones", "Nom_Districte": "Sarri\u00e0-Sant Gervasi", "Demanda_ocupacio": "Atur Registrat", "Nom_Barri": "Sant Gervasi - Galvany", "Mes": "1", "Codi_Barri": "26", "Nombre": "788", "_id": 26, "Any": "2021"}, {"Codi_Districte": "5", "Sexe": "Dones", "Nom_Districte": "Sarri\u00e0-Sant Gervasi", "Demanda_ocupacio": "Atur Registrat", "Nom_Barri": "el Putxet i el Farr\u00f3", "Mes": "1", "Codi_Barri": "27", "Nombre": "687", "_id": 27, "Any": "2021"}, {"Codi_Districte": "6", "Sexe": "Dones", "Nom_Districte": "Gr\u00e0cia", "Demanda_ocupacio": "Atur Registrat", "Nom_Barri": "Vallcarca i els Penitents", "Mes": "1", "Codi_Barri": "28", "Nombre": "452", "_id": 28, "Any": "2021"}, {"Codi_Districte": "6", "Sexe": "Dones", "Nom_Districte": "Gr\u00e0cia", "Demanda_ocupacio": "Atur Registrat", "Nom_Barri": "el Coll", "Mes": "1", "Codi_Barri": "29", "Nombre": "191", "_id": 29, "Any": "2021"}, {"Codi_Districte": "6", "Sexe": "Dones", "Nom_Districte": "Gr\u00e0cia", "Demanda_ocupacio": "Atur Registrat", "Nom_Barri": "la Salut", "Mes": "1", "Codi_Barri": "30", "Nombre": "359", "_id": 30, "Any": "2021"}, {"Codi_Districte": "6", "Sexe": "Dones", "Nom_Districte": "Gr\u00e0cia", "Demanda_ocupacio": "Atur Registrat", "Nom_Barri": "la Vila de Gr\u00e0cia", "Mes": "1", "Codi_Barri": "31", "Nombre": "1414", "_id": 31, "Any": "2021"}, {"Codi_Districte": "6", "Sexe": "Dones", "Nom_Districte": "Gr\u00e0cia", "Demanda_ocupacio": "Atur Registrat", "Nom_Barri": "el Camp d'en Grassot i Gr\u00e0cia Nova", "Mes": "1", "Codi_Barri": "32", "Nombre": "895", "_id": 32, "Any": "2021"}, {"Codi_Districte": "7", "Sexe": "Dones", "Nom_Districte": "Horta-Guinard\u00f3", "Demanda_ocupacio": "Atur Registrat", "Nom_Barri": "el Baix Guinard\u00f3", "Mes": "1", "Codi_Barri": "33", "Nombre": "694", "_id": 33, "Any": "2021"}, {"Codi_Districte": "7", "Sexe": "Dones", "Nom_Districte": "Horta-Guinard\u00f3", "Demanda_ocupacio": "Atur Registrat", "Nom_Barri": "Can Bar\u00f3", "Mes": "1", "Codi_Barri": "34", "Nombre": "256", "_id": 34, "Any": "2021"}, {"Codi_Districte": "7", "Sexe": "Dones", "Nom_Districte": "Horta-Guinard\u00f3", "Demanda_ocupacio": "Atur Registrat", "Nom_Barri": "el Guinard\u00f3", "Mes": "1", "Codi_Barri": "35", "Nombre": "1109", "_id": 35, "Any": "2021"}, {"Codi_Districte": "7", "Sexe": "Dones", "Nom_Districte": "Horta-Guinard\u00f3", "Demanda_ocupacio": "Atur Registrat", "Nom_Barri": "la Font d'en Fargues", "Mes": "1", "Codi_Barri": "36", "Nombre": "339", "_id": 36, "Any": "2021"}, {"Codi_Districte": "7", "Sexe": "Dones", "Nom_Districte": "Horta-Guinard\u00f3", "Demanda_ocupacio": "Atur Registrat", "Nom_Barri": "el Carmel", "Mes": "1", "Codi_Barri": "37", "Nombre": "1155", "_id": 37, "Any": "2021"}, {"Codi_Districte": "7", "Sexe": "Dones", "Nom_Districte": "Horta-Guinard\u00f3", "Demanda_ocupacio": "Atur Registrat", "Nom_Barri": "la Teixonera", "Mes": "1", "Codi_Barri": "38", "Nombre": "357", "_id": 38, "Any": "2021"}, {"Codi_Districte": "7", "Sexe": "Dones", "Nom_Districte": "Horta-Guinard\u00f3", "Demanda_ocupacio": "Atur Registrat", "Nom_Barri": "Sant Gen\u00eds dels Agudells", "Mes": "1", "Codi_Barri": "39", "Nombre": "217", "_id": 39, "Any": "2021"}, {"Codi_Districte": "7", "Sexe": "Dones", "Nom_Districte": "Horta-Guinard\u00f3", "Demanda_ocupacio": "Atur Registrat", "Nom_Barri": "Montbau", "Mes": "1", "Codi_Barri": "40", "Nombre": "157", "_id": 40, "Any": "2021"}, {"Codi_Districte": "7", "Sexe": "Dones", "Nom_Districte": "Horta-Guinard\u00f3", "Demanda_ocupacio": "Atur Registrat", "Nom_Barri": "la Vall d'Hebron", "Mes": "1", "Codi_Barri": "41", "Nombre": "167", "_id": 41, "Any": "2021"}, {"Codi_Districte": "7", "Sexe": "Dones", "Nom_Districte": "Horta-Guinard\u00f3", "Demanda_ocupacio": "Atur Registrat", "Nom_Barri": "la Clota", "Mes": "1", "Codi_Barri": "42", "Nombre": "12", "_id": 42, "Any": "2021"}, {"Codi_Districte": "7", "Sexe": "Dones", "Nom_Districte": "Horta-Guinard\u00f3", "Demanda_ocupacio": "Atur Registrat", "Nom_Barri": "Horta", "Mes": "1", "Codi_Barri": "43", "Nombre": "995", "_id": 43, "Any": "2021"}, {"Codi_Districte": "8", "Sexe": "Dones", "Nom_Districte": "Nou Barris", "Demanda_ocupacio": "Atur Registrat", "Nom_Barri": "Vilapicina i la Torre Llobeta", "Mes": "1", "Codi_Barri": "44", "Nombre": "935", "_id": 44, "Any": "2021"}, {"Codi_Districte": "8", "Sexe": "Dones", "Nom_Districte": "Nou Barris", "Demanda_ocupacio": "Atur Registrat", "Nom_Barri": "Porta", "Mes": "1", "Codi_Barri": "45", "Nombre": "903", "_id": 45, "Any": "2021"}, {"Codi_Districte": "8", "Sexe": "Dones", "Nom_Districte": "Nou Barris", "Demanda_ocupacio": "Atur Registrat", "Nom_Barri": "el Tur\u00f3 de la Peira", "Mes": "1", "Codi_Barri": "46", "Nombre": "587", "_id": 46, "Any": "2021"}, {"Codi_Districte": "8", "Sexe": "Dones", "Nom_Districte": "Nou Barris", "Demanda_ocupacio": "Atur Registrat", "Nom_Barri": "Can Peguera", "Mes": "1", "Codi_Barri": "47", "Nombre": "81", "_id": 47, "Any": "2021"}, {"Codi_Districte": "8", "Sexe": "Dones", "Nom_Districte": "Nou Barris", "Demanda_ocupacio": "Atur Registrat", "Nom_Barri": "la Guineueta", "Mes": "1", "Codi_Barri": "48", "Nombre": "635", "_id": 48, "Any": "2021"}, {"Codi_Districte": "8", "Sexe": "Dones", "Nom_Districte": "Nou Barris", "Demanda_ocupacio": "Atur Registrat", "Nom_Barri": "Canyelles", "Mes": "1", "Codi_Barri": "49", "Nombre": "310", "_id": 49, "Any": "2021"}, {"Codi_Districte": "8", "Sexe": "Dones", "Nom_Districte": "Nou Barris", "Demanda_ocupacio": "Atur Registrat", "Nom_Barri": "les Roquetes", "Mes": "1", "Codi_Barri": "50", "Nombre": "672", "_id": 50, "Any": "2021"}, {"Codi_Districte": "8", "Sexe": "Dones", "Nom_Districte": "Nou Barris", "Demanda_ocupacio": "Atur Registrat", "Nom_Barri": "Verdun", "Mes": "1", "Codi_Barri": "51", "Nombre": "515", "_id": 51, "Any": "2021"}, {"Codi_Districte": "8", "Sexe": "Dones", "Nom_Districte": "Nou Barris", "Demanda_ocupacio": "Atur Registrat", "Nom_Barri": "la Prosperitat", "Mes": "1", "Codi_Barri": "52", "Nombre": "1014", "_id": 52, "Any": "2021"}, {"Codi_Districte": "8", "Sexe": "Dones", "Nom_Districte": "Nou Barris", "Demanda_ocupacio": "Atur Registrat", "Nom_Barri": "la Trinitat Nova", "Mes": "1", "Codi_Barri": "53", "Nombre": "451", "_id": 53, "Any": "2021"}, {"Codi_Districte": "8", "Sexe": "Dones", "Nom_Districte": "Nou Barris", "Demanda_ocupacio": "Atur Registrat", "Nom_Barri": "Torre Bar\u00f3", "Mes": "1", "Codi_Barri": "54", "Nombre": "125", "_id": 54, "Any": "2021"}, {"Codi_Districte": "8", "Sexe": "Dones", "Nom_Districte": "Nou Barris", "Demanda_ocupacio": "Atur Registrat", "Nom_Barri": "Ciutat Meridiana", "Mes": "1", "Codi_Barri": "55", "Nombre": "652", "_id": 55, "Any": "2021"}, {"Codi_Districte": "8", "Sexe": "Dones", "Nom_Districte": "Nou Barris", "Demanda_ocupacio": "Atur Registrat", "Nom_Barri": "Vallbona", "Mes": "1", "Codi_Barri": "56", "Nombre": "76", "_id": 56, "Any": "2021"}, {"Codi_Districte": "9", "Sexe": "Dones", "Nom_Districte": "Sant Andreu", "Demanda_ocupacio": "Atur Registrat", "Nom_Barri": "la Trinitat Vella", "Mes": "1", "Codi_Barri": "57", "Nombre": "604", "_id": 57, "Any": "2021"}, {"Codi_Districte": "9", "Sexe": "Dones", "Nom_Districte": "Sant Andreu", "Demanda_ocupacio": "Atur Registrat", "Nom_Barri": "Bar\u00f3 de Viver", "Mes": "1", "Codi_Barri": "58", "Nombre": "82", "_id": 58, "Any": "2021"}, {"Codi_Districte": "9", "Sexe": "Dones", "Nom_Districte": "Sant Andreu", "Demanda_ocupacio": "Atur Registrat", "Nom_Barri": "el Bon Pastor", "Mes": "1", "Codi_Barri": "59", "Nombre": "465", "_id": 59, "Any": "2021"}, {"Codi_Districte": "9", "Sexe": "Dones", "Nom_Districte": "Sant Andreu", "Demanda_ocupacio": "Atur Registrat", "Nom_Barri": "Sant Andreu", "Mes": "1", "Codi_Barri": "60", "Nombre": "1883", "_id": 60, "Any": "2021"}, {"Codi_Districte": "9", "Sexe": "Dones", "Nom_Districte": "Sant Andreu", "Demanda_ocupacio": "Atur Registrat", "Nom_Barri": "la Sagrera", "Mes": "1", "Codi_Barri": "61", "Nombre": "882", "_id": 61, "Any": "2021"}, {"Codi_Districte": "9", "Sexe": "Dones", "Nom_Districte": "Sant Andreu", "Demanda_ocupacio": "Atur Registrat", "Nom_Barri": "el Congr\u00e9s i els Indians", "Mes": "1", "Codi_Barri": "62", "Nombre": "430", "_id": 62, "Any": "2021"}, {"Codi_Districte": "9", "Sexe": "Dones", "Nom_Districte": "Sant Andreu", "Demanda_ocupacio": "Atur Registrat", "Nom_Barri": "Navas", "Mes": "1", "Codi_Barri": "63", "Nombre": "661", "_id": 63, "Any": "2021"}, {"Codi_Districte": "10", "Sexe": "Dones", "Nom_Districte": "Sant Mart\u00ed", "Demanda_ocupacio": "Atur Registrat", "Nom_Barri": "el Camp de l'Arpa del Clot", "Mes": "1", "Codi_Barri": "64", "Nombre": "1212", "_id": 64, "Any": "2021"}, {"Codi_Districte": "10", "Sexe": "Dones", "Nom_Districte": "Sant Mart\u00ed", "Demanda_ocupacio": "Atur Registrat", "Nom_Barri": "el Clot", "Mes": "1", "Codi_Barri": "65", "Nombre": "847", "_id": 65, "Any": "2021"}, {"Codi_Districte": "10", "Sexe": "Dones", "Nom_Districte": "Sant Mart\u00ed", "Demanda_ocupacio": "Atur Registrat", "Nom_Barri": "el Parc i la Llacuna del Poblenou", "Mes": "1", "Codi_Barri": "66", "Nombre": "419", "_id": 66, "Any": "2021"}, {"Codi_Districte": "10", "Sexe": "Dones", "Nom_Districte": "Sant Mart\u00ed", "Demanda_ocupacio": "Atur Registrat", "Nom_Barri": "la Vila Ol\u00edmpica del Poblenou", "Mes": "1", "Codi_Barri": "67", "Nombre": "279", "_id": 67, "Any": "2021"}, {"Codi_Districte": "10", "Sexe": "Dones", "Nom_Districte": "Sant Mart\u00ed", "Demanda_ocupacio": "Atur Registrat", "Nom_Barri": "el Poblenou", "Mes": "1", "Codi_Barri": "68", "Nombre": "958", "_id": 68, "Any": "2021"}, {"Codi_Districte": "10", "Sexe": "Dones", "Nom_Districte": "Sant Mart\u00ed", "Demanda_ocupacio": "Atur Registrat", "Nom_Barri": "Diagonal Mar i el Front Mar\u00edtim del Poblenou", "Mes": "1", "Codi_Barri": "69", "Nombre": "445", "_id": 69, "Any": "2021"}, {"Codi_Districte": "10", "Sexe": "Dones", "Nom_Districte": "Sant Mart\u00ed", "Demanda_ocupacio": "Atur Registrat", "Nom_Barri": "el Bes\u00f2s i el Maresme", "Mes": "1", "Codi_Barri": "70", "Nombre": "1017", "_id": 70, "Any": "2021"}, {"Codi_Districte": "10", "Sexe": "Dones", "Nom_Districte": "Sant Mart\u00ed", "Demanda_ocupacio": "Atur Registrat", "Nom_Barri": "Proven\u00e7als del Poblenou", "Mes": "1", "Codi_Barri": "71", "Nombre": "670", "_id": 71, "Any": "2021"}, {"Codi_Districte": "10", "Sexe": "Dones", "Nom_Districte": "Sant Mart\u00ed", "Demanda_ocupacio": "Atur Registrat", "Nom_Barri": "Sant Mart\u00ed de Proven\u00e7als", "Mes": "1", "Codi_Barri": "72", "Nombre": "916", "_id": 72, "Any": "2021"}, {"Codi_Districte": "10", "Sexe": "Dones", "Nom_Districte": "Sant Mart\u00ed", "Demanda_ocupacio": "Atur Registrat", "Nom_Barri": "la Verneda i la Pau", "Mes": "1", "Codi_Barri": "73", "Nombre": "1035", "_id": 73, "Any": "2021"}, {"Codi_Districte": "99", "Sexe": "Dones", "Nom_Districte": "No consta", "Demanda_ocupacio": "Atur Registrat", "Nom_Barri": "No consta", "Mes": "1", "Codi_Barri": "99", "Nombre": "70", "_id": 74, "Any": "2021"}, {"Codi_Districte": "1", "Sexe": "Dones", "Nom_Districte": "Ciutat Vella", "Demanda_ocupacio": "Demanda No Aturats", "Nom_Barri": "el Raval", "Mes": "1", "Codi_Barri": "1", "Nombre": "3272", "_id": 75, "Any": "2021"}, {"Codi_Districte": "1", "Sexe": "Dones", "Nom_Districte": "Ciutat Vella", "Demanda_ocupacio": "Demanda No Aturats", "Nom_Barri": "el Barri G\u00f2tic", "Mes": "1", "Codi_Barri": "2", "Nombre": "768", "_id": 76, "Any": "2021"}, {"Codi_Districte": "1", "Sexe": "Dones", "Nom_Districte": "Ciutat Vella", "Demanda_ocupacio": "Demanda No Aturats", "Nom_Barri": "la Barceloneta", "Mes": "1", "Codi_Barri": "3", "Nombre": "848", "_id": 77, "Any": "2021"}, {"Codi_Districte": "1", "Sexe": "Dones", "Nom_Districte": "Ciutat Vella", "Demanda_ocupacio": "Demanda No Aturats", "Nom_Barri": "Sant Pere, Santa Caterina i la Ribera", "Mes": "1", "Codi_Barri": "4", "Nombre": "1189", "_id": 78, "Any": "2021"}, {"Codi_Districte": "2", "Sexe": "Dones", "Nom_Districte": "Eixample", "Demanda_ocupacio": "Demanda No Aturats", "Nom_Barri": "el Fort Pienc", "Mes": "1", "Codi_Barri": "5", "Nombre": "1401", "_id": 79, "Any": "2021"}, {"Codi_Districte": "2", "Sexe": "Dones", "Nom_Districte": "Eixample", "Demanda_ocupacio": "Demanda No Aturats", "Nom_Barri": "la Sagrada Fam\u00edlia", "Mes": "1", "Codi_Barri": "6", "Nombre": "2335", "_id": 80, "Any": "2021"}, {"Codi_Districte": "2", "Sexe": "Dones", "Nom_Districte": "Eixample", "Demanda_ocupacio": "Demanda No Aturats", "Nom_Barri": "la Dreta de l'Eixample", "Mes": "1", "Codi_Barri": "7", "Nombre": "1555", "_id": 81, "Any": "2021"}, {"Codi_Districte": "2", "Sexe": "Dones", "Nom_Districte": "Eixample", "Demanda_ocupacio": "Demanda No Aturats", "Nom_Barri": "l'Antiga Esquerra de l'Eixample", "Mes": "1", "Codi_Barri": "8", "Nombre": "1679", "_id": 82, "Any": "2021"}, {"Codi_Districte": "2", "Sexe": "Dones", "Nom_Districte": "Eixample", "Demanda_ocupacio": "Demanda No Aturats", "Nom_Barri": "la Nova Esquerra de l'Eixample", "Mes": "1", "Codi_Barri": "9", "Nombre": "2499", "_id": 83, "Any": "2021"}, {"Codi_Districte": "2", "Sexe": "Dones", "Nom_Districte": "Eixample", "Demanda_ocupacio": "Demanda No Aturats", "Nom_Barri": "Sant Antoni", "Mes": "1", "Codi_Barri": "10", "Nombre": "1769", "_id": 84, "Any": "2021"}, {"Codi_Districte": "3", "Sexe": "Dones", "Nom_Districte": "Sants-Montju\u00efc", "Demanda_ocupacio": "Demanda No Aturats", "Nom_Barri": "el Poble Sec", "Mes": "1", "Codi_Barri": "11", "Nombre": "2070", "_id": 85, "Any": "2021"}, {"Codi_Districte": "99", "Sexe": "Homes", "Nom_Districte": "No consta", "Demanda_ocupacio": "Atur Registrat", "Nom_Barri": "No consta", "Mes": "5", "Codi_Barri": "99", "Nombre": "53", "_id": 1406, "Any": "2021"}, {"Codi_Districte": "3", "Sexe": "Dones", "Nom_Districte": "Sants-Montju\u00efc", "Demanda_ocupacio": "Demanda No Aturats", "Nom_Barri": "la Marina del Prat Vermell", "Mes": "1", "Codi_Barri": "12", "Nombre": "84", "_id": 86, "Any": "2021"}, {"Codi_Districte": "3", "Sexe": "Dones", "Nom_Districte": "Sants-Montju\u00efc", "Demanda_ocupacio": "Demanda No Aturats", "Nom_Barri": "la Marina de Port", "Mes": "1", "Codi_Barri": "13", "Nombre": "1608", "_id": 87, "Any": "2021"}, {"Codi_Districte": "3", "Sexe": "Dones", "Nom_Districte": "Sants-Montju\u00efc", "Demanda_ocupacio": "Demanda No Aturats", "Nom_Barri": "la Font de la Guatlla", "Mes": "1", "Codi_Barri": "14", "Nombre": "523", "_id": 88, "Any": "2021"}, {"Codi_Districte": "3", "Sexe": "Dones", "Nom_Districte": "Sants-Montju\u00efc", "Demanda_ocupacio": "Demanda No Aturats", "Nom_Barri": "Hostafrancs", "Mes": "1", "Codi_Barri": "15", "Nombre": "802", "_id": 89, "Any": "2021"}, {"Codi_Districte": "3", "Sexe": "Dones", "Nom_Districte": "Sants-Montju\u00efc", "Demanda_ocupacio": "Demanda No Aturats", "Nom_Barri": "la Bordeta", "Mes": "1", "Codi_Barri": "16", "Nombre": "941", "_id": 90, "Any": "2021"}, {"Codi_Districte": "3", "Sexe": "Dones", "Nom_Districte": "Sants-Montju\u00efc", "Demanda_ocupacio": "Demanda No Aturats", "Nom_Barri": "Sants - Badal", "Mes": "1", "Codi_Barri": "17", "Nombre": "1018", "_id": 91, "Any": "2021"}, {"Codi_Districte": "3", "Sexe": "Dones", "Nom_Districte": "Sants-Montju\u00efc", "Demanda_ocupacio": "Demanda No Aturats", "Nom_Barri": "Sants", "Mes": "1", "Codi_Barri": "18", "Nombre": "1934", "_id": 92, "Any": "2021"}, {"Codi_Districte": "4", "Sexe": "Dones", "Nom_Districte": "Les Corts", "Demanda_ocupacio": "Demanda No Aturats", "Nom_Barri": "les Corts", "Mes": "1", "Codi_Barri": "19", "Nombre": "1998", "_id": 93, "Any": "2021"}, {"Codi_Districte": "4", "Sexe": "Dones", "Nom_Districte": "Les Corts", "Demanda_ocupacio": "Demanda No Aturats", "Nom_Barri": "la Maternitat i Sant Ramon", "Mes": "1", "Codi_Barri": "20", "Nombre": "1006", "_id": 94, "Any": "2021"}, {"Codi_Districte": "4", "Sexe": "Dones", "Nom_Districte": "Les Corts", "Demanda_ocupacio": "Demanda No Aturats", "Nom_Barri": "Pedralbes", "Mes": "1", "Codi_Barri": "21", "Nombre": "250", "_id": 95, "Any": "2021"}, {"Codi_Districte": "5", "Sexe": "Dones", "Nom_Districte": "Sarri\u00e0-Sant Gervasi", "Demanda_ocupacio": "Demanda No Aturats", "Nom_Barri": "Vallvidrera, el Tibidabo i les Planes", "Mes": "1", "Codi_Barri": "22", "Nombre": "98", "_id": 96, "Any": "2021"}, {"Codi_Districte": "5", "Sexe": "Dones", "Nom_Districte": "Sarri\u00e0-Sant Gervasi", "Demanda_ocupacio": "Demanda No Aturats", "Nom_Barri": "Sarri\u00e0", "Mes": "1", "Codi_Barri": "23", "Nombre": "531", "_id": 97, "Any": "2021"}, {"Codi_Districte": "5", "Sexe": "Dones", "Nom_Districte": "Sarri\u00e0-Sant Gervasi", "Demanda_ocupacio": "Demanda No Aturats", "Nom_Barri": "les Tres Torres", "Mes": "1", "Codi_Barri": "24", "Nombre": "383", "_id": 98, "Any": "2021"}, {"Codi_Districte": "5", "Sexe": "Dones", "Nom_Districte": "Sarri\u00e0-Sant Gervasi", "Demanda_ocupacio": "Demanda No Aturats", "Nom_Barri": "Sant Gervasi - la Bonanova", "Mes": "1", "Codi_Barri": "25", "Nombre": "732", "_id": 99, "Any": "2021"}], "_links": {"start": "/api/action/datastore_search?resource_id=7b2652c1-d689-4804-8a16-55386022e9f8", "next": "/api/action/datastore_search?offset=100&resource_id=7b2652c1-d689-4804-8a16-55386022e9f8"}, "total": 3552}}